Introduction of TIDY data
…
# county level data of fertilizer application.  
#Source: https://www.sciencebase.gov/catalog/item/5851b2d1e4b0f99207c4f238
raw_data = read_csv("../data/CNTY_FERT_1987-2012.csv")
#head(raw_data)

a. 

FIPSno5

# add leading zeros to fill in 5 digits.
raw_data %>% 
  mutate(FIPS_no = str_pad(FIPSno, 5, pad = "0" )) %>% 
  select(FIPS_no)

## # A tibble: 3,111 x 1
##    FIPS_no
##    <chr>  
##  1 01001  
##  2 01003  
##  3 01005  
##  4 01007  
##  5 01009  
##  6 01011  
##  7 01013  
##  8 01015  
##  9 01017  
## 10 01019  
## # ... with 3,101 more rows
…
