…
### a. 数字前增加一个零

**有些数据前的零会被一些软件自动省略，然而有些数据的位数非常重要**。例如原数据的FIPSno代码就要求是5位数字，所以需要在不够五位数字的前加一个零，代码如下所示：

``` r
# add leading zeros to fill in 5 digits.
raw_data %>% 
  mutate(FIPS_no = str_pad(FIPSno, 5, pad = "0" )) %>% 
  select(FIPS_no)
```

    ## # A tibble: 3,111 x 1
    ##    FIPS_no
    ##    <chr>  
    ##  1 01001  
    ##  2 01003  
    ##  3 01005  
    ##  4 01007  
    ##  5 01009  
    ##  6 01011  
    ##  7 01013  
    ##  8 01015  
    ##  9 01017  
    ## 10 01019  
    ## # ... with 3,101 more rows
…
